0.6	0.4	0.0	0.0	
0.5714	0.2857	0.1429	0.0	
0.75	0.25	0.0	0.0	
0.6	0.4	0.0	0.0	
0.0	0.0	0.6667	0.3333	
0.0	0.0	0.8	0.2	
0.375	0.0	0.375	0.25	
0.0	0.0	0.75	0.25	
1.0	0.0	0.0	0.0	
0.6545	0.1636	0.1091	0.0727	
